Using `egor` to analyse ego-centered network data • egor
…
6
0.0104603
0.0020921
0.0020921
NA
0.0020921
0.0020921
0.0146444

Diversity

alts_diversity_count(e1, "age")
#> # A tibble: 32 x 2
#>    .egoID result
#>    <chr>   <dbl>
#>  1 1           3
#>  2 2           7
#>  3 3           6
#>  4 4           7
#>  5 5           3
#>  6 6           6
#>  7 7           3
#>  8 8           7
#>  9 9           3
#> 10 10          3
#> # … with 22 more rows
alts_diversity_entropy(e1, "age")
#> # A tibble: 32 x 2
#>    .egoID result
#>    <chr>   <dbl>
#>  1 1        1.41
#>  2 2        2.29
#>  3 3        2.05
#>  4 4        2.25
#>  5 5        1.36
#>  6 6        2.05
#>  7 7        1.32
#>  8 8        2.25
#>  9 9        1.39
#> 10 10       1.32
#> # … with 22 more rows

Ego-Alter Homophily (EI-Index)

comp_ei(e1, "age", "age")
#> # A tibble: 32 x 2
#>    .egoID  result
#>    <chr>    <dbl>
#>  1 1       1     
#>  2 2       0.895 
#>  3 3       0.875 
#>  4 4       0.412 
#>  5 5       1     
#>  6 6       0.875 
#>  7 7       1     
#>  8 8       0.412 
#>  9 9       0.111 
#> 10 10     -0.0909
#> # … with 22 more rows
…
Count attribute combinations in alter-alter ties/ dyads

# return results as "wide" tibble
  count_dyads(
    object = e1,
    alter_var_name = "country"
  )
#> # A tibble: 32 x 11
#>    .egoID dy_cou_Australi… dy_cou_Australi… dy_cou_Australi… dy_cou_Australi…
#>    <fct>             <int>            <int>            <int>            <int>
#>  1 1                     1                2                2                5
#>  2 2                     3               12                7                9
#>  3 3                     1               10                4               14
#>  4 4                     6                9                3                8
#>  5 5                     1                1                3                3
#>  6 6                     5                5                5                6
#>  7 7                     2                4                6                5
#>  8 8                     2               10                8               11
#>  9 9                     1                2                4                2
#> 10 10                    1                4                4                3
#> # … with 22 more rows, and 6 more variables: dy_cou_Germany_USA <int>,
#> #   dy_cou_USA_USA <int>, dy_cou_Germany_Germany <int>,
#> #   dy_cou_Germany_Poland <int>, dy_cou_Poland_Poland <int>,
#> #   dy_cou_Poland_USA <int>

# return results as "long" tibble
  count_dyads(
    object = e1,
    alter_var_name = "country",
    return_as = "long"
  )
#> # A tibble: 292 x 3
#>    .egoID dyads                   n
#>    <fct>  <chr>               <int>
#>  1 1      Australia_Australia     1
#>  2 1      Australia_Germany       2
#>  3 1      Australia_Poland        2
#>  4 1      Australia_USA           5
#>  5 1      Germany_USA             2
#>  6 1      USA_USA                 2
#>  7 2      Australia_Australia     3
#>  8 2      Australia_Germany      12
#>  9 2      Australia_Poland        7
#> 10 2      Australia_USA           9
#> # … with 282 more rows
…
