Calculate Burt constraint for the egos of ego-centered networks — ego_constraint • egor
…
    The calculation of weighted network constraint only works, if
the alter-alter tie weights are complemented by a alter level variable
specifying the same weight for the ego-alter ties.

    References

    Burt, R. (2004). Structural holes and good ideas. American Journal of Sociology, (110), 349–399.

    Examples

data(egor32)
ego_constraint(egor32)

#> # A tibble: 32 x 2
#>    .egoID constraint
#>    <fct>       <dbl>
#>  1 1           0.397
#>  2 2           0.191
#>  3 3           0.226
#>  4 4           0.212
#>  5 5           0.329
#>  6 6           0.216
#>  7 7           0.311
#>  8 8           0.209
#>  9 9           0.346
#> 10 10          0.291
#> # … with 22 more rows
…
