Calculate the relationship density in ego-centered networks — ego_density • egor
…
directed
logical indicating if the alter-alter relation data/ edges
are directed or un-directed.

    Value

    returns a vector of network density values.

    Examples

data("egor32")
ego_density(egor32)
#> # A tibble: 32 × 2
#>    .egoID density
#>     <dbl>   <dbl>
#>  1      1   0.485
#>  2      2   0.5  
#>  3      3   0.5  
#>  4      4   0.409
#>  5      5   0.561
#>  6      6   0.455
#>  7      7   0.652
#>  8      8   0.485
#>  9      9   0.515
#> 10     10   0.515
#> # ℹ 22 more rows
…
