Calculate EI-Index of ego networks — EI • egor
…
Everett, M. G., & Borgatti, S. P. (2012). Categorical attribute
based centrality: E-I and G-F centrality. Social Networks, 34(4), 562-569.

    See also

    comp_ei(), for an ego level homophily measure.

    Examples

data("egor32")
EI(egor32, "sex")
#> # A tibble: 32 × 4
#>    .egoID       ei        m        w
#>     <dbl>    <dbl>    <dbl>    <dbl>
#>  1      1 -0.123   -0.167   -0.100  
#>  2      2 -0.0608  -0.0323  -0.0667 
#>  3      3 -0.122   -0.190    0.448  
#>  4      4 -0.231   -0.0323  -0.263  
#>  5      5  0.0448  -0.0141   0.111  
#>  6      6  0.141   -0.00917  0.674  
#>  7      7  0.00705 -0.119    0.0389 
#>  8      8 -0.123    0.0588  -0.355  
#>  9      9 -0.0606  -0.181    0.00990
#> 10     10 -0.0286  -0.25     0.0370 
#> # ℹ 22 more rows
…
