Filter and Subset Ego-centered Datasets — subset.egor • egor
…
    Value

    An egor() object.

    Details

    Removing or duplicating an ego will also remove or duplicate their
alters and ties.

    Examples

# Generate a small sample dataset
(e <- make_egor(5,4))
#> # EGO data (active)
#> # A tibble: 5 x 6
#>   .egoID sex   age      age.years country   income
#>    <dbl> <chr> <fct>        <int> <chr>      <dbl>
#> 1      1 w     0 - 17           1 Australia  35770
#> 2      2 m     66 - 100        73 Germany    31755
#> 3      3 m     66 - 100        92 Poland     58765
#> # … with 2 more rows
#> # ALTER data 
#> # A tibble: 15 x 7
#>   .altID .egoID sex   age     age.years country   income
#>    <int>  <dbl> <chr> <fct>       <int> <chr>      <dbl>
#> 1      1      1 w     46 - 55        50 Germany    17885
#> 2      2      1 m     0 - 17         10 Australia  17155
#> 3      3      1 w     0 - 17         15 Germany    24455
#> # … with 12 more rows
#> # AATIE data 
#> # A tibble: 8 x 4
#>   .egoID .srcID .tgtID weight
#>    <int>  <int>  <int>  <dbl>
#> 1      4      1      2  0.667
#> 2      2      1      2  0.667
#> 3      3      3      4  0.333
#> # … with 5 more rows

# First three egos in the dataset
e[1:3,]
#> # EGO data (active)
#> # A tibble: 3 x 6
#>   .egoID sex   age      age.years country   income
#>    <dbl> <chr> <fct>        <int> <chr>      <dbl>
#> 1      1 w     0 - 17           1 Australia  35770
#> 2      2 m     66 - 100        73 Germany    31755
#> 3      3 m     66 - 100        92 Poland     58765
#> # ALTER data 
#> # A tibble: 9 x 7
#>   .altID .egoID sex   age     age.years country   income
#>    <int>  <dbl> <chr> <fct>       <int> <chr>      <dbl>
#> 1      1      1 w     46 - 55        50 Germany    17885
#> 2      2      1 m     0 - 17         10 Australia  17155
#> 3      3      1 w     0 - 17         15 Germany    24455
#> # … with 6 more rows
#> # AATIE data 
#> # A tibble: 4 x 4
#>   .egoID .srcID .tgtID weight
#>    <int>  <int>  <int>  <dbl>
#> 1      2      1      2  0.667
#> 2      3      3      4  0.333
#> 3      3      2      3  0.667
#> # … with 1 more row

# Using an external vector
# (though normally, we would use e[.keep,] here)
.keep <- rep(c(TRUE, FALSE), length.out=nrow(e$ego))
subset(e, .keep)
#> # EGO data (active)
#> # A tibble: 3 x 6
#>   .egoID sex   age      age.years country   income
#>    <dbl> <chr> <fct>        <int> <chr>      <dbl>
#> 1      1 w     0 - 17           1 Australia  35770
#> 2      3 m     66 - 100        92 Poland     58765
#> 3      5 w     66 - 100        68 Poland      1825
#> # ALTER data 
#> # A tibble: 10 x 7
#>   .altID .egoID sex   age     age.years country   income
#>    <int>  <dbl> <chr> <fct>       <int> <chr>      <dbl>
#> 1      1      1 w     46 - 55        50 Germany    17885
#> 2      2      1 m     0 - 17         10 Australia  17155
#> 3      3      1 w     0 - 17         15 Germany    24455
#> # … with 7 more rows
#> # AATIE data 
#> # A tibble: 5 x 4
#>   .egoID .srcID .tgtID weight
#>    <int>  <int>  <int>  <dbl>
#> 1      3      3      4  0.333
#> 2      5      1      2  0.667
#> 3      3      2      3  0.667
#> # … with 2 more rows
…
